[
  {
    "id": 1,
    "title": "Classic Notebook",
    "description": "A little old, but turns on.",
    "specs": [
      "Has a screen",
      "Keyboard works, mostly",
      "32MB Ram (Not upgradable)",
      "6GB Hard Disk",
      "Comes with Floppy Disk Reader (Free) - Requires cable",
      "Good excersice to carry"
    ],
    "price": 200,
    "stock": 1,
    "active": true,
    "image": "assets/images/1.png"
  },
  {
    "id": 2,
    "title": "Box with Screen",
    "description": "It's all in the screen! Batteries no included.",
    "specs": [
      "The computer is the screen",
      "Requires keyboard and mouse",
      "128MB Ram (Not upgradable)",
      "32GB Hard Disk",
      "Mono Speakers",
      "Colourful"
    ],
    "price": 1000,
    "stock": 5,
    "active": true,
    "image": "assets/images/2.png"
  },
  {
    "id": 3,
    "title": "Heych Pea Office Book",
    "description": "It's the Word on the street that this is the best way to type your Word documents",
    "specs": [
      "720p Glossy Screen",
      "Portable and comes with charger",
      "1Ghz Dual Core Celaroon",
      "4GB Ram",
      "128GB Hard Disk",
      "Multi touch trackpage with buttons",
      "Mono Speakers",
      "Comes with free bag"
    ],
    "price": 6000,
    "stock": 50,
    "active": true,
    "image": "assets/images/3.jpg"
  },
  {
    "id": 4,
    "title": "SharpEdge Blade",
    "description": "Great for gaming! Play your favourite Solitaire game today",
    "specs": [
      "4K Matte Screen",
      "4.2Ghz Hex Core Intol",
      "32GB Ram",
      "1TB SSD",
      "Nvodio BeForce 3080",
      "5.1 Doly Sound",
      "Comes with free bag"
    ],
    "price": 25000,
    "stock": 34,
    "active": true,
    "image": "assets/images/4.jpg"
  },
  {
    "id": 5,
    "title": "The Visor",
    "description": "Game in style and with bright LED's",
    "specs": [
      "No Screen",
      "4.8Ghz Octa Core Intol",
      "64GB Ram",
      "2TB SSD",
      "ANB RZ6000 12GB",
      "7.1 Doly Sound",
      "Water cooling"
    ],
    "price": 33000,
    "stock": 10,
    "active": true,
    "image": "assets/images/5.jpg"
  },
  {
    "id": 6,
    "title": "The Egyptian",
    "description": "Ever wanted a Pyramid in your room? Now's your chance!",
    "specs": [
      "No Screen",
      "LED's Everywhere",
      "5Ghz Octa Core ANB",
      "64GB Ram",
      "2TB SSD",
      "ANB RZ6900 16GB",
      "7.1 Doly Sound",
      "Water cooling"
    ],
    "price": 52900,
    "stock": 5,
    "active": true,
    "image": "assets/images/6.jpg"
  }
]